Group,class
0,App-generated
1,Normal
2,App-generated
3,Normal
4,App-generated
5,App-generated
6,App-generated
7,App-generated
8,Spam
9,App-generated
10,App-generated
11,Normal
13,App-generated
14,Normal
15,App-generated
16,App-generated
17,Spam
18,Normal
19,App-generated
20,Normal
21,Normal
22,Spam
23,Spam
24,Spam
25,Normal
26,Normal
27,Spam
28,Normal
29,App-generated
30,Normal
31,Spam
32,Spam
33,Spam
34,Spam
35,Normal
36,Spam
37,Normal
38,App-generated
39,Spam
40,App-generated
41,App-generated
42,App-generated
43,Normal
44,Normal
45,Spam
46,App-generated
47,Normal
48,Normal
49,App-generated
50,Normal
51,App-generated
52,App-generated
53,App-generated
54,Normal
55,Spam
56,Normal
57,App-generated
58,Normal
59,Spam
60,Normal
61,Spam
62,Normal
63,Spam
64,Normal
65,App-generated
66,App-generated
67,Normal
68,App-generated
69,App-generated
70,Spam
71,App-generated
72,Spam
73,Spam
74,Spam
75,Spam
76,Normal
77,App-generated
78,Normal
79,Normal
80,Spam
81,Normal
82,App-generated
83,Spam
84,Normal
85,Spam
86,Spam
87,Normal
88,Spam
89,Spam
90,Spam
91,App-generated
92,App-generated
93,Spam
94,Spam
95,Spam
96,Normal
97,Normal
98,Normal
99,Normal
100,Normal
101,Normal
102,Spam
103,Spam
104,Normal
105,Normal
106,Normal
107,Normal
108,Normal
109,Spam
110,App-generated
111,Normal
112,Spam
113,Normal
114,Spam
115,Spam
116,Normal
117,App-generated
118,Normal
119,Spam
120,Normal
121,Spam
122,Normal
123,Normal
124,App-generated
125,Spam
126,Spam
127,Normal
128,Normal
129,Normal
130,App-generated
131,Spam
132,Normal
133,Spam
134,Spam
135,Normal
136,Normal
137,App-generated
138,Spam
139,Spam
140,Normal
142,Normal
143,Spam
144,Normal
145,App-generated
146,App-generated
147,Spam
148,Spam
149,Normal
150,Spam
151,Normal
152,Spam
153,Normal
154,Normal
155,App-generated
156,Spam
157,Spam
158,Normal
159,Spam
160,Spam
161,Spam
162,Spam
163,Normal
164,Spam
165,Spam
166,Spam
167,App-generated
168,Normal
169,Spam
170,Spam
171,Spam
172,Spam
173,Spam
174,Spam
175,Spam
176,Spam
177,Spam
178,Normal
179,Normal
180,App-generated
181,Spam
182,Spam
183,Spam
184,Spam
185,App-generated
186,Spam
187,App-generated
188,Spam
189,Spam
190,Spam
191,App-generated
192,Normal
193,Spam
194,Normal
195,Spam
196,Spam
197,Spam
198,Spam
199,Normal
200,Spam
201,Normal
202,Normal
203,App-generated
204,Normal
205,App-generated
206,App-generated
207,Spam
208,Spam
209,Spam
210,Normal
211,Spam
212,Normal
213,Spam
214,Normal
215,App-generated
216,Spam
217,Normal
218,App-generated
219,Normal
220,Spam
221,App-generated
222,Normal
223,Spam
224,Normal
225,Normal
226,App-generated
227,Normal
228,Normal
229,Normal
230,Spam
231,Normal
232,Normal
233,App-generated
234,App-generated
235,Normal
236,Normal
237,Normal
238,Normal
239,Normal
240,Normal
241,App-generated
242,Spam
243,Spam
244,Normal
245,Normal
246,Spam
247,App-generated
248,Spam
249,Normal
250,Spam
251,Spam
252,Normal
253,Normal
254,Normal
255,Normal
256,Normal
257,Normal
258,Normal
259,Normal
260,Normal
261,Spam
262,Normal
263,Normal
264,Normal
265,Spam
266,Normal
267,Normal
268,Normal
269,Spam
270,Spam
271,Spam
272,Spam
273,Normal
274,Spam
275,Spam
276,Normal
277,Spam
278,Normal
279,Spam
280,Normal
281,Normal
282,Normal
283,Normal
284,Spam
285,Normal
286,Spam
287,Normal
288,Normal
289,Spam
290,Normal
291,Normal
292,Normal
293,Spam
295,Spam
296,Normal
297,Normal
298,Normal
299,Normal
300,Spam
301,App-generated
302,Normal
303,Normal
304,Normal
305,Spam
306,Spam
307,App-generated
308,Normal
309,App-generated
310,Normal
311,App-generated
312,Normal
313,Spam
314,Normal
315,App-generated
316,Spam
317,App-generated
318,Spam
319,App-generated
320,Normal
321,Normal
322,Normal
323,App-generated
324,App-generated
325,Spam
326,Normal
327,Normal
328,Spam
329,Normal
330,Normal
331,Spam
332,Normal
333,Spam
334,Normal
335,Normal
336,Spam
337,Spam
338,Spam
339,Normal
340,Spam
341,App-generated
342,Spam
343,App-generated
344,Normal
345,Spam
346,App-generated
347,Normal
348,Normal
349,Normal
350,Spam
351,Normal
352,Spam
353,Spam
354,Spam
355,Spam
356,Normal
357,Normal
358,Normal
359,Normal
360,App-generated
361,Spam
362,Normal
363,App-generated
364,Spam
365,Normal
366,Normal
367,Spam
368,App-generated
369,Normal
370,Normal
371,Spam
372,Normal
373,Normal
374,Normal
375,Normal
376,Normal
377,Spam
378,Spam
379,Normal
380,App-generated
381,Normal
382,Normal
383,App-generated
384,Normal
385,Spam
386,App-generated
387,Normal
388,Spam
389,Normal
390,Normal
391,Normal
392,Normal
393,Normal
394,Spam
395,Spam
396,Normal
397,Normal
398,Spam
399,App-generated
400,Spam
401,Spam
402,Normal
403,Normal
404,App-generated
405,Spam
406,Spam
407,Spam
408,Normal
409,Spam
410,Quote
411,Quote
412,Quote
413,Normal
414,Quote
415,Quote
416,Spam
417,Quote
418,Normal
419,Spam
420,Spam
421,Normal
422,Spam
423,Normal
424,App-generated
425,Normal
426,Spam
427,Spam
428,Spam
429,Normal
430,Normal
431,App-generated
432,Spam
433,Normal
434,Normal
435,Spam
436,Normal
437,Normal
438,App-generated
439,Normal
440,Spam
441,Spam
442,Normal
443,Spam
444,Spam
445,Normal
446,Spam
447,Spam
448,Spam
449,Normal
450,Spam
451,Spam
452,Normal
453,Normal
454,Spam
455,Spam
456,Normal
457,Spam
458,App-generated
459,Normal
460,Spam
461,Spam
462,Normal
463,Normal
464,Spam
465,Spam
466,Spam
467,Spam
468,Spam
469,App-generated
470,Normal
471,Spam
472,Normal
473,Spam
474,App-generated
475,Normal
476,Normal
477,App-generated
478,Spam
479,Spam
480,App-generated
481,Spam
482,Normal
483,Normal
484,App-generated
485,App-generated
486,Spam
487,Spam
488,Spam
489,Spam
490,Spam
491,Normal
492,Spam
493,Spam
494,Spam
495,Normal
496,Spam
497,Normal
498,Spam
499,Normal
500,Spam
501,Normal
502,Normal
503,Spam
504,Spam
505,Spam
506,Normal
507,Spam
508,Spam
509,App-generated
510,Normal
511,Spam
512,Normal
513,Spam
514,Normal
515,App-generated
516,Normal
517,Spam
518,Normal
519,App-generated
520,App-generated
521,Normal
522,Normal
523,Normal
524,Spam
525,Normal
526,Spam
527,Normal
528,Spam
529,Normal
530,Normal
531,Spam
532,Spam
533,Spam
534,Spam
535,Spam
536,Normal
537,Spam
538,Spam
539,Spam
540,Spam
541,Spam
542,Spam
543,App-generated
544,Spam
545,Spam
546,Spam
547,Spam
548,Spam
549,Spam
550,Normal
551,Spam
552,Normal
553,Spam
554,Spam
555,Normal
556,Spam
557,Spam
558,Spam
559,Normal
560,Spam
561,Spam
562,Normal
563,Spam
564,Spam
565,Normal
566,Spam
567,Spam
568,Quote
569,Normal
570,Normal
571,Spam
572,Normal
573,Spam
574,Normal
575,Normal
576,Spam
577,Spam
578,Spam
579,Normal
580,Spam
581,Spam
582,Normal
583,Spam
584,App-generated
585,Normal
586,Spam
587,Spam
588,Spam
589,Normal
590,Spam
591,Normal
592,Spam
593,Normal
594,Normal
595,App-generated
596,Normal
597,App-generated
598,Spam
599,Normal
600,Spam
601,Normal
602,Spam
603,Normal
604,Spam
605,Normal
606,Spam
607,Normal
608,Normal
609,App-generated
610,Normal
611,Normal
612,Normal
613,Normal
614,App-generated
615,Normal
616,Normal
617,Spam
618,Spam
619,Spam
620,Normal
621,Spam
622,Normal
623,Normal
624,Spam
625,Normal
626,App-generated
627,Spam
628,Normal
629,Normal
630,App-generated
631,Normal
632,Normal
633,Normal
634,Normal
635,Normal
636,App-generated
637,Normal
638,Normal
639,Normal
640,Normal
641,Normal
642,Normal
643,App-generated
644,Spam
645,Normal
646,Normal
647,Spam
648,Spam
649,Spam
650,Normal
651,Spam
652,Spam
653,Spam
654,Normal
655,Spam
656,Spam
657,Spam
658,Normal
659,Spam
660,Spam
661,Spam
662,Normal
663,App-generated
664,Spam
665,Normal
666,Spam
667,Spam
668,App-generated
669,Quote
670,Spam
671,Normal
672,Spam
673,App-generated
674,Normal
675,Spam
676,Normal
677,Normal
678,Normal
679,Normal
680,Spam
681,Quote
682,Normal
683,Normal
684,Spam
685,Quote
686,Normal
687,Normal
688,Spam
689,Spam
690,Normal
691,Normal
692,Spam
693,Normal
694,Normal
695,Normal
696,Spam
697,App-generated
698,Spam
699,Normal
700,Normal
701,Spam
702,Spam
703,Normal
704,Normal
705,Normal
706,App-generated
707,Spam
708,Spam
709,App-generated
710,App-generated
711,App-generated
712,Normal
713,Spam
714,Spam
715,Normal
716,App-generated
717,Normal
718,Spam
719,Normal
720,Spam
721,App-generated
722,App-generated
723,Normal
724,Normal
725,Normal
726,App-generated
727,Normal
728,Normal
729,Normal
730,App-generated
731,App-generated
732,Normal
733,Normal
734,Normal
735,Spam
736,Normal
737,Normal
738,Normal
739,Spam
740,Normal
741,Normal
742,Spam
743,Normal
744,Normal
745,Normal
746,Normal
747,Normal
748,Spam
749,Normal
750,Spam
751,Normal
752,Normal
753,Normal
754,Normal
755,Spam
756,Normal
757,Normal
758,App-generated
759,Normal
760,Normal
761,App-generated
762,Normal
763,Spam
764,Spam
765,Normal
766,Spam
767,Spam
768,Spam
769,Spam
770,Quote
771,Spam
772,Normal
773,Spam
774,Normal
775,Quote
776,Spam
777,Spam
778,Quote
779,Quote
780,Normal
781,Normal
782,Spam
783,Spam
784,Normal
785,Normal
786,Spam
787,Normal
788,Spam
789,Normal
790,Spam
791,Quote
792,Quote
793,Normal
794,Normal
795,Spam
796,Normal
797,Normal
798,Spam
799,Spam
800,Normal
801,Normal
802,Spam
803,Normal
804,Normal
805,Spam
806,Normal
807,Quote
808,Spam
809,Normal
810,Normal
811,Normal
812,Spam
813,Spam
814,Normal
815,Normal
816,Normal
817,Normal
818,Quote
819,Spam
820,Normal
821,Quote
822,Spam
823,App-generated
824,Normal
825,Spam
826,Normal
827,Spam
828,Spam
829,Spam
830,Quote
831,Normal
833,App-generated
834,Normal
835,Quote
836,Spam
837,Normal
838,Normal
839,Normal
840,Quote
841,Normal
842,Spam
843,App-generated
844,Normal
845,Spam
846,Normal
847,Normal
848,Normal
849,Normal
850,Spam
851,Normal
852,Normal
853,Spam
854,Spam
855,Spam
856,Spam
857,Normal
858,Quote
859,Normal
860,Normal
861,Normal
862,Spam
863,Normal
864,Spam
865,Normal
866,Quote
867,Normal
868,Normal
869,Normal
870,Spam
871,Spam
872,Spam
873,Spam
874,Normal
875,Spam
876,Spam
877,Spam
878,Spam
879,Normal
880,Quote
881,Normal
882,Normal
883,Normal
884,Spam
885,Spam
886,Normal
887,Normal
888,Spam
889,Spam
890,Spam
891,Normal
892,Spam
894,Normal
895,Quote
896,Spam
897,Normal
898,Spam
899,Spam
900,Quote
901,Spam
902,Spam
903,Spam
904,Normal
905,App-generated
906,Quote
907,Spam
908,Spam
909,Spam
910,Normal
911,Normal
912,Normal
913,Normal
914,Normal
915,App-generated
916,Quote
917,Spam
918,Normal
919,Normal
920,App-generated
921,Quote
922,Normal
923,Spam
924,Spam
925,Spam
926,App-generated
927,Normal
928,Spam
929,Spam
930,Normal
931,Normal
932,Normal
933,Spam
934,Normal
935,Spam
936,Spam
937,Spam
938,App-generated
939,Normal
940,Quote
941,Normal
942,Quote
943,Quote
944,Spam
945,Normal
946,Spam
947,Normal
948,Normal
949,Spam
950,Quote
951,Normal
952,Normal
953,Normal
954,Normal
955,Spam
956,Normal
957,Normal
958,Normal
959,Normal
960,Normal
961,Spam
962,Normal
963,Quote
964,App-generated
965,Normal
966,Normal
967,Spam
968,Quote
969,Spam
970,Spam
971,Normal
972,Normal
973,Normal
974,Normal
975,Normal
976,Spam
977,Normal
978,Spam
979,Spam
980,Normal
981,Normal
982,Normal
983,Normal
984,Normal
985,Normal
986,Normal
987,Normal
988,Normal
989,Spam
990,Spam
991,Normal
992,Spam
993,Normal
994,Normal
995,Spam
996,Spam
997,Spam
998,Normal
999,Normal
1000,Normal
1001,Normal
1002,Normal
1003,Normal
1004,Spam
1005,Normal
1006,Spam
1007,Normal
1008,Normal
1009,Normal
1010,Spam
1011,Normal
1012,Normal
1013,Normal
1014,Normal
1015,Normal
1016,Normal
1017,Normal
1018,Spam
1019,Spam
1020,Normal
1021,Spam
1022,App-generated
1023,Normal
1024,Normal
1025,Normal
1026,Normal
1027,Normal
1028,Normal
1029,Normal
1030,Quote
1031,Normal
1032,Normal
1033,Normal
1034,Normal
1035,Normal
1036,Normal
1037,Normal
1038,Normal
1039,Normal
1040,Spam
1041,Quote
1042,Normal
1043,Quote
1044,Quote
1045,Spam
1046,Normal
1047,Spam
1048,Spam
1049,Normal
1050,Spam
1051,Normal
1052,Normal
1053,Spam
1054,Spam
1055,Spam
1056,Normal
1057,Normal
1058,Normal
1059,Spam
1060,Normal
1061,Normal
1062,Normal
1063,Spam
1064,Normal
1065,Spam
1066,Quote
1067,App-generated
1068,Spam
1069,App-generated
1070,Normal
1071,Normal
1072,Spam
1073,Normal
1074,Spam
1075,Quote
1076,Quote
1077,Quote
1078,Normal
1079,Quote
1080,Normal
1081,App-generated
1082,Normal
1083,Normal
1084,Spam
1085,Spam
1086,Spam
1087,Spam
1088,Normal
1089,Quote
1090,Spam
1092,Spam
1093,Normal
1094,Spam
1095,Normal
1096,Spam
1097,Spam
1098,Spam
1099,Normal
1100,App-generated
1101,Normal
1102,Spam
1103,Normal
1104,Spam
1105,Normal
1106,Quote
1107,App-generated
1108,Normal
1109,Normal
1110,Normal
1111,App-generated
1112,Quote
1113,Spam
1114,Normal
1115,Quote
1116,Normal
1117,Quote
1118,Spam
1119,Normal
1120,Normal
1121,Quote
1122,Normal
1123,Normal
1124,Normal
1125,Quote
1126,Normal
1127,Spam
1128,Normal
1129,Spam
1130,Spam
1131,Normal
1132,Quote
1133,App-generated
1134,Spam
1135,Spam
1136,Spam
1137,Normal
1138,Normal
1139,Normal
1140,Spam
1141,Normal
1142,Normal
1143,Spam
1144,Spam
1145,Spam
1146,Quote
1147,Spam
1148,Spam
1149,Normal
1150,App-generated
1151,Spam
1152,Spam
1153,Normal
1154,App-generated
1155,Spam
1156,Spam
1157,Spam
1158,Spam
1159,Normal
1160,App-generated
1161,Quote
1162,App-generated
1163,Normal
1164,Spam
1165,App-generated
1166,Spam
1167,Spam
1168,Normal
1169,App-generated
1170,Normal
1171,Spam
1172,Quote
1173,Quote
1174,Normal
1175,Spam
1176,Normal
1177,Spam
1178,Quote
1179,Spam
1180,Quote
1181,Normal
1182,Spam
1183,Spam
1184,Quote
1185,Spam
1186,Normal
1187,Spam
1188,Spam
1189,Normal
1190,Spam
1191,Quote
1192,Normal
1193,Normal
1194,Spam
1195,Quote
1196,Normal
1197,Normal
1198,Spam
1199,Normal
1200,App-generated
1201,App-generated
1202,Normal
1203,Quote
1204,Spam
1205,Normal
1206,Spam
1207,Spam
1208,Normal
1209,App-generated
1210,Spam
1211,Spam
1212,Quote
1213,App-generated
1214,Quote
1215,Normal
1216,Spam
1217,Quote
1218,App-generated
1219,Normal
1220,Quote
1221,Spam
1222,Normal
1223,Spam
1224,Normal
1225,Spam
1226,Spam
1227,App-generated
1228,Spam
1229,Normal
1230,Normal
1231,Normal
1232,Quote
1233,Normal
1234,Quote
1235,App-generated
1236,Normal
1237,Quote
1238,App-generated
1239,Spam
1240,Normal
1241,Quote
1242,Normal
1243,Normal
1244,Spam
1245,Spam
1246,Normal
1247,Normal
1248,App-generated
1249,Normal
1250,Spam
1251,App-generated
1252,Quote
1253,Spam
1254,Normal
1255,App-generated
1256,Normal
1257,Spam
1258,Spam
1259,Normal
1260,Normal
1261,Normal
1262,Spam
1263,Normal
1264,Quote
1265,App-generated
1266,Normal
1267,Normal
1268,Normal
1269,Spam
1270,Spam
1271,Normal
1272,Normal
1273,Normal
1274,Spam
1275,Spam
1276,Normal
1277,Spam
1278,Spam
1279,Spam
1280,Normal
1281,Normal
1282,Normal
1283,Normal
1284,Normal
1285,App-generated
1286,Normal
1287,Normal
1288,Normal
1289,App-generated
1290,App-generated
1291,Normal
1292,App-generated
1293,Normal
1294,Spam
1295,Spam
1296,Normal
1297,Quote
1298,App-generated
1299,Spam
1301,Normal
1302,Normal
1303,Quote
1304,Spam
1305,App-generated
1306,Spam
1307,Spam
1308,Spam
1309,Spam
1310,Spam
1311,Normal
1312,Normal
1313,Spam
1314,Normal
1315,Spam
1316,Normal
1317,Normal
1318,Normal
1319,Spam
1320,Spam
1321,Normal
1322,Normal
1323,Spam
1324,Normal
1325,Normal
1326,Spam
1327,Spam
1328,Normal
1329,Spam
1330,Normal
1331,Normal
1332,App-generated
1333,Normal
1334,Spam
1335,Spam
1336,Normal
1337,Spam
1338,Spam
1339,Spam
1340,Normal
1341,Normal
1342,Quote
1343,Normal
1344,App-generated
1345,Quote
1346,Normal
1347,Normal
1348,Normal
1349,Spam
1350,Normal
1351,Spam
1352,Normal
1353,Normal
1354,Normal
1355,Normal
1356,Spam
1357,Spam
1358,Normal
1359,Normal
1360,Normal
1361,Spam
1362,Normal
1363,Normal
1364,Quote
1365,Spam
1366,App-generated
1367,App-generated
1368,App-generated
1369,Normal
1370,Normal
1371,App-generated
1372,Normal
1373,Normal
1374,App-generated
1375,Normal
1376,Normal
1377,Normal
1378,Normal
1379,Normal
1380,Normal
1381,Normal
1382,App-generated
1383,Spam
1384,Spam
1385,Spam
1386,Normal
1387,Spam
1388,App-generated
1389,Normal
1390,Spam
1391,Spam
1392,Normal
1393,Spam
1394,Spam
1395,Spam
1396,Normal
1397,Normal
1398,Normal
1399,Normal
1400,App-generated
1401,App-generated
1402,Normal
1403,Normal
1404,Spam
1405,Normal
1406,Normal
1407,Spam
1408,Spam
1410,Spam
1411,Quote
1412,App-generated
1413,Spam
1414,Spam
1415,Normal
1416,Spam
1417,Normal
1418,Normal
1419,Normal
1420,Normal
1421,Spam
1422,Normal
1423,Spam
1424,Normal
1425,App-generated
1426,Spam
1427,Spam
1428,App-generated
1429,Normal
1430,Spam
1431,Normal
1432,Normal
1433,App-generated
1434,Normal
1435,Spam
1436,Normal
1437,Spam
1438,Normal
1439,App-generated
1440,App-generated
1441,Spam
1442,Normal
1443,Spam
1444,Spam
1445,Normal
1446,Spam
1447,Normal
1448,Normal
1449,Normal
1450,Normal
1451,Normal
1452,Spam
1453,Normal
1454,Normal
1455,Normal
1456,App-generated
1457,Spam
1458,App-generated
1459,Spam
1460,Normal
1461,Normal
1462,Normal
1463,Normal
1464,Normal
1465,Normal
1466,Normal
1467,Spam
1468,Normal
1469,Normal
1470,Normal
1471,Normal
1472,Normal
1473,Normal
1474,App-generated
1475,Normal
1476,Normal
1477,Normal
1478,Quote
1479,Normal
1480,Normal
1481,App-generated
1482,Spam
1483,Normal
1484,Normal
1485,Normal
1486,Spam
1487,Normal
1488,Spam
1489,Normal
1490,App-generated
1491,Quote
1492,Spam
1493,Spam
1494,Normal
1495,Normal
1496,Spam
1497,App-generated
1498,App-generated
1499,Normal
1500,Normal
1501,Normal
1502,Normal
1503,Spam
1504,Spam
1505,Normal
1506,Normal
1507,Normal
1508,Normal
1509,App-generated
1510,Normal
1511,Normal
1512,Normal
1513,Spam
1514,Normal
1515,Normal
1516,Spam
1517,Spam
1518,Normal
1519,Spam
1520,Normal
1521,Spam
1522,Spam
1523,Normal
1524,Normal
1525,App-generated
1526,Spam
1527,Normal
1528,Spam
1529,Spam
1530,Spam
1531,Spam
1532,Spam
1533,Spam
1534,Normal
1535,App-generated
1536,Normal
1537,Quote
1538,Spam
1539,Normal
1540,App-generated
1541,Quote
1542,Normal
1543,Spam
1544,Spam
1545,Spam
1546,Normal
1547,Spam
1548,Spam
1549,Normal
1550,Normal
1551,Normal
1552,Normal
1553,Spam
1554,Quote
1555,App-generated
1556,Normal
1557,Normal
1558,Normal
1559,Spam
1560,App-generated
1561,Spam
1562,Normal
1563,Normal
1564,Normal
1565,Normal
1566,Normal
1567,Normal
1568,Normal
1569,Normal
1570,Normal
1571,Normal
1572,Normal
1573,Spam
1574,Normal
1575,App-generated
1576,Quote
1577,Normal
1578,Normal
1579,Spam
1580,Normal
1581,Spam
1582,Normal
1583,App-generated
1584,Normal
1585,Quote
1586,Spam
1587,Spam
1588,Normal
1589,App-generated
1590,Normal
1591,Normal
1592,Normal
1593,Spam
1594,Spam
1595,Normal
1596,Normal
1597,Spam
1598,Normal
1599,App-generated
1600,Spam
1601,App-generated
1602,Normal
1603,Normal
1604,Spam
1605,Normal
1606,Normal
1607,Spam
1608,Spam
1609,Spam
1610,Spam
1611,Spam
1612,Normal
1613,Spam
1614,Normal
1615,Spam
1616,Normal
1617,Spam
1618,Spam
1619,Spam
1620,Spam
1621,Normal
1622,Normal
1623,Spam
1624,Quote
1625,Spam
1626,Normal
1627,Spam
1628,Spam
1629,Spam
1630,Quote
1631,Spam
1632,Quote
1633,Normal
1634,Quote
1635,Spam
1636,Spam
1637,Spam
1638,Normal
1639,Spam
1640,Spam
1641,Normal
1642,Spam
1643,Spam
1644,Spam
1645,Normal
1646,Quote
1647,Spam
1648,Spam
1649,Normal
1650,Spam
1651,Normal
1652,Spam
1653,Spam
1654,Spam
1655,Spam
1656,Spam
1657,Normal
1658,Normal
1659,Spam
1660,Spam
1661,Spam
1662,Spam
1663,Normal
1664,Quote
1665,App-generated
1666,Spam
1667,Spam
1668,Normal
1669,Normal
1670,App-generated
1671,Quote
1672,Normal
1673,Spam
1674,Spam
1675,Spam
1676,Spam
1677,Normal
1678,Normal
1679,Normal
1680,Normal
1681,Normal
1682,Spam
1683,Spam
1684,Spam
1685,Spam
1686,Spam
1687,Spam
1688,Quote
1689,Spam
1690,Spam
1691,Spam
1692,Spam
1693,Normal
1694,Spam
1695,Normal
1696,Normal
1697,Spam
1698,Quote
1699,Spam
1700,Spam
1701,Spam
1702,Spam
1703,Spam
1704,Normal
1705,Spam
1706,App-generated
1707,Spam
1708,Spam
1709,Normal
1710,Spam
1711,Spam
1712,Normal
1713,Normal
1714,Spam
1715,Normal
1716,Spam
1717,Normal
1718,Spam
1719,Spam
1720,Spam
1721,Spam
1722,Normal
1723,Normal
1724,Quote
1725,Spam
1726,Normal
1727,Quote
1728,Normal
1729,Spam
1730,Spam
1731,Spam
1732,Normal
1733,Spam
1734,Normal
1735,Normal
1736,Quote
1737,Normal
1738,Normal
1739,Spam
1740,Normal
1741,Spam
1742,Normal
1743,Normal
1744,Spam
1745,Quote
1746,Spam
1747,Normal
1748,Normal
1749,Spam
1750,Spam
1751,Spam
1752,Quote
1753,Spam
1754,Spam
1755,Quote
1756,Spam
1757,Spam
1758,Normal
1759,Spam
1760,Spam
1761,Spam
1762,Normal
1763,Spam
1764,Spam
1765,Spam
1766,Spam
1767,Normal
1768,Spam
1769,Normal
1770,Spam
1771,App-generated
1772,Spam
1773,Quote
1774,Spam
1775,Spam
1776,Spam
1777,Spam
1778,Spam
1779,Spam
1780,Normal
1781,Normal
1782,Spam
1783,Spam
1784,Spam
1785,Normal
1786,Spam
1787,Normal
1788,Quote
1789,Normal
1790,Spam
1791,Spam
1792,App-generated
1793,Normal
1794,Spam
1795,Spam
1796,Normal
1797,Spam
1798,Spam
1799,Spam
1800,Spam
1801,Normal
1802,Spam
1803,Normal
1804,Spam
1805,Spam
1806,Spam
1807,Spam
1808,Normal
1809,Normal
1810,Spam
1811,Spam
1812,App-generated
1813,Spam
1814,Normal
1815,Normal
1816,Spam
1817,Normal
1818,Normal
1819,Spam
1820,Quote
1821,Normal
1822,Normal
1823,Spam
1824,Spam
1825,Normal
1826,Normal
1827,Normal
1828,Normal
1829,Normal
1830,App-generated
1831,Spam
1832,Spam
1833,Normal
1834,App-generated
1835,Normal
1836,Normal
1837,Normal
1838,Spam
1839,Spam
1840,Spam
1841,Spam
1842,Quote
1843,Spam
1844,Normal
1845,Quote
1846,Spam
1847,Normal
1848,Normal
1849,Normal
1850,App-generated
1851,Normal
1852,Normal
1853,Normal
1854,Normal
1855,Spam
1856,App-generated
1857,Spam
1858,Normal
1859,Spam
1860,Normal
1861,Spam
1862,App-generated
1863,Normal
1864,App-generated
1865,Spam
1866,Normal
1867,App-generated
1868,App-generated
1869,App-generated
1870,Normal
1871,Spam
1872,Normal
1873,Normal
1874,Spam
1875,Spam
1876,App-generated
1877,Spam
1878,Normal
1879,Normal
1880,Normal
1881,Spam
1882,Normal
1883,Spam
1884,Spam
1885,Normal
1886,Normal
1887,App-generated
1888,Spam
1889,Normal
1890,Normal
1891,Spam
1892,Normal
1893,Normal
1894,Normal
1895,Normal
1896,Spam
1897,Normal
1898,Spam
1899,Spam
1900,Spam
1901,Spam
1902,Quote
1903,Normal
1904,Normal
1905,Spam
1906,Spam
1907,Spam
1908,Normal
1909,Spam
1910,Normal
1911,Normal
1912,Normal
1913,Normal
1914,Normal
1915,Normal
1916,Normal
1917,Normal
1918,Spam
1919,Normal
1920,Spam
1921,Spam
1922,Spam
1923,App-generated
1924,Normal
1925,Normal
1926,Normal
1927,App-generated
1928,Spam
1929,Normal
1930,Spam
1931,Normal
1932,Normal
1933,Normal
1934,Spam
1935,App-generated
1936,Spam
1937,Normal
1938,App-generated
1939,Spam
1940,Normal
1941,Normal
1942,Spam
1943,App-generated
1944,Normal
1945,Normal
1946,Normal
1947,Spam
1948,Spam
1949,Spam
1950,Normal
1951,Normal
1952,Normal
1953,Spam
1954,Normal
1955,Spam
1956,Normal
1957,Normal
1958,Spam
1959,Spam
1960,Normal
1961,Normal
1962,Spam
1963,Normal
1964,Spam
1965,Normal
1966,Normal
1967,Normal
1968,Normal
1969,Spam
1970,Normal
1971,Spam
1972,Spam
1973,Normal
1974,App-generated
1975,Normal
1976,Spam
1977,App-generated
1978,Normal
1979,Spam
1980,App-generated
1981,Normal
1982,Normal
1983,Spam
1984,Spam
1985,Quote
1986,Spam
1987,Spam
1988,Normal
1989,Spam
1990,Spam
1991,Spam
1992,Normal
1993,Spam
1994,Spam
1995,Spam
1996,Normal
1998,Normal
1999,Normal
2000,Spam
2001,Spam
2002,Normal
2003,Normal
2004,App-generated
2005,Normal
2006,Spam
2007,Normal
2008,Spam
2009,Normal
2010,Spam
2011,Normal
2012,Normal
2013,Normal
2014,Normal
2015,Spam
2016,Spam
2017,Normal
2018,Normal
2020,Spam
2021,Normal
2022,Normal
2027,Spam
2028,Normal
2031,Spam
2034,Normal
2036,Quote
2038,Spam
2040,Spam
2041,Normal
2043,Normal
2044,Spam
2046,App-generated
2047,Spam
2049,Normal
2050,App-generated
2051,Spam
2053,Spam
2054,Normal
2057,Quote
2058,Normal
2059,Spam
2060,Spam
2061,Spam
2064,Normal
2066,Spam
2069,Normal
2071,Spam
2074,Spam
2076,Spam
2077,Spam
2078,Normal
2079,Spam
2080,Spam
2081,Normal
2082,Normal
2083,Normal
2084,Spam
2085,Normal
2086,Spam
2087,Normal
2088,Normal
2089,Normal
2090,Normal
2091,Normal
2092,Spam
2093,Normal
2094,Spam
2095,Spam
2096,Normal
2097,Spam
2098,Normal
2099,Quote
2100,Spam
2101,Normal
2102,Quote
2103,Normal
2104,Spam
2105,Normal
2106,Normal
2107,App-generated
2108,App-generated
2109,Normal
2110,Normal
2111,Normal
2112,Normal
2113,Normal
2114,Normal
2115,Normal
2116,Normal
2117,Normal
2118,Spam
2119,Normal
2120,Spam
2121,Normal
2122,Quote
2123,Normal
2124,Spam
2125,Normal
2126,Normal
2127,Normal
2128,Normal
2129,Normal
2130,Normal
2131,Normal
2132,Quote
2133,Spam
2134,Normal
2135,Normal
2136,Spam
2137,Normal
2138,Spam
2139,Normal
2140,Normal
2141,Spam
2142,Spam
2143,Normal
2144,Normal
2145,Normal
2146,Normal
2147,Normal
2148,Normal
2149,Normal
2150,Normal
2151,Quote
2152,Normal
2153,Spam
2154,Spam
2155,Normal
2156,Spam
2157,App-generated
2158,Spam
2159,Normal
2160,Normal
2161,Spam
2162,Normal
2163,Normal
2164,Spam
2165,Normal
2166,Spam
2167,Spam
2168,Spam
2169,Normal
2170,Normal
2171,App-generated
2172,Spam
2173,Quote
2174,Normal
2175,Normal
2176,Normal
2177,Normal
2178,Normal
2179,Normal
2180,Normal
2181,Spam
2182,Normal
2183,Spam
2184,Spam
2185,Spam
2186,Quote
2187,Normal
2188,Normal
2189,Normal
2190,Normal
2191,Spam
2192,Quote
2193,Normal
2194,Spam
2195,Spam
2196,Spam
2197,Normal
2198,Normal
2199,Normal
2200,Normal
2201,Normal
2202,App-generated
2203,Normal
2204,App-generated
2205,Normal
2206,Spam
2207,Spam
2208,App-generated
2209,Normal
2210,Spam
2211,Spam
2212,App-generated
2213,Normal
2214,Normal
2215,Normal
2216,Normal
2217,App-generated
2218,Normal
2219,Spam
2220,Spam
2221,Spam
2222,Spam
2223,Spam
2224,Normal
2225,Normal
2226,Normal
2227,Normal
2228,Normal
2229,Spam
2230,Spam
2231,Normal
2232,Normal
2233,Normal
2234,Normal
2235,Spam
2236,Normal
2237,Normal
2238,Normal
2239,Normal
2240,Normal
2241,Normal
2242,Normal
2243,Normal
2244,App-generated
2245,Spam
2246,Spam
2247,Spam
2248,App-generated
2249,Normal
2250,Normal
2251,App-generated
2252,Normal
2253,Spam
2254,Normal
2255,Spam
2256,Normal
2257,Normal
2258,Normal
2259,Normal
2260,Spam
2261,Normal
2262,Normal
2263,Normal
2264,App-generated
2265,Quote
2266,Spam
2267,Normal
2268,Spam
2269,Normal
2270,App-generated
2271,Normal
2272,Quote
2273,Normal
2274,Normal
2275,Normal
2276,Normal
2277,Normal
2278,Spam
2279,Normal
2280,Normal
2281,Spam
2282,Normal
2283,Normal
2284,Normal
2285,Spam
2286,Normal
2287,Normal
2288,Normal
2289,App-generated
2290,Normal
2291,Spam
2292,Normal
2293,Normal
2294,Normal
2295,Normal
2296,Normal
2297,Spam
2298,Normal
2299,Normal
2300,Spam
2301,Normal
2302,Normal
2303,Spam
2304,Spam
2305,Normal
2306,Spam
2307,Normal
2308,Normal
2309,Spam
2310,Normal
2311,Spam
2312,Spam
2313,Spam
2314,Normal
2315,Quote
2316,Normal
2317,Spam
2318,Normal
2319,Spam
2320,Spam
2321,Spam
2322,Normal
2323,Normal
2324,Normal
2325,Spam
2326,Normal
2327,Spam
2328,Normal
2329,Normal
2330,Normal
2331,Normal
2332,Normal
2333,Quote
2334,Normal
2335,Spam
2336,Normal
2337,Spam
2338,Normal
2339,Quote
2340,Spam
2341,Spam
2342,Normal
2343,Normal
2344,Normal
2345,Normal
2346,Quote
2347,Spam
2348,Normal
2349,App-generated
2350,Normal
2351,Spam
2352,Normal
2353,Normal
2354,App-generated
2355,Normal
2356,Normal
2357,Normal
2358,Spam
2359,Normal
2360,Quote
2361,Spam
2362,Spam
2363,Spam
2364,Spam
2365,Normal
2366,Spam
2367,Normal
2368,Spam
2369,Normal
2370,Normal
2371,Normal
2372,Normal
2373,Normal
2374,Normal
2375,Normal
2376,Normal
2377,Normal
2378,Normal
2379,Spam
2380,Spam
2381,Normal
2382,Spam
2383,Normal
2384,Normal
2385,Spam
2386,Spam
2387,Normal
2388,Spam
2389,Spam
2390,Quote
2391,Normal
2392,Normal
2393,Normal
2394,Normal
2395,Normal
2396,Normal
2397,Normal
2398,Normal
2399,Normal
2400,Quote
2401,Normal
2402,Spam
2403,Normal
2404,Normal
2405,Spam
2406,Quote
2407,Normal
2408,Normal
2409,Normal
2410,Normal
2411,Normal
2412,Normal
2413,Normal
2414,App-generated
2415,Normal
2416,Normal
2417,Normal
2418,Normal
2419,Quote
2420,Normal
2421,Normal
2422,Normal
2423,Normal
2424,Normal
2425,Normal
2426,App-generated
2427,Normal
2428,Normal
2429,Spam
2430,Normal
2431,Normal
2432,Quote
2433,Spam
2434,Normal
2435,Normal
2436,Spam
2437,Normal
2438,Spam
2439,Quote
2440,Normal
2441,Spam
2442,Spam
2443,Normal
2444,Spam
2445,Normal
2446,Normal
2447,Normal
2448,Spam
2449,Spam
2450,Spam
2451,Normal
2452,Normal
2453,Quote
2454,Spam
2455,Spam
2456,Normal
2457,Normal
2458,Quote
2459,Spam
2460,Normal
2461,App-generated
2462,Spam
2463,Normal
2464,Quote
2465,Spam
2466,Normal
2467,Spam
2468,Normal
2469,Normal
2470,Spam
2471,Normal
2472,Spam
2473,Quote
2474,Quote
2475,Spam
2476,Spam
2477,App-generated
2478,Spam
2479,Spam
2480,Spam
2481,Spam
2482,Spam
2483,Spam
2484,Normal
2485,Spam
2486,Spam
2487,Spam
2488,Normal
2489,Spam
2490,Spam
2491,Spam
2492,Spam
2493,Normal
2494,Normal
2495,Normal
2496,Normal
2497,Spam
2498,Normal
2499,Normal
2500,Spam
2501,Spam
2502,Normal
2503,Normal
2504,Spam
2505,Spam
2506,Spam
2507,Spam
2508,Spam
2509,Normal
2510,Normal
2511,Spam
2512,Spam
2513,Normal
2514,Normal
2515,Spam
2516,Normal
2517,Spam
2518,Spam
2519,Spam
2520,Spam
2521,Normal
2522,Normal
2523,Spam
2524,Spam
2525,Spam
2526,Spam
2527,Spam
2528,Spam
2529,Spam
2530,Spam
2531,Spam
2532,Normal
2533,App-generated
2534,App-generated
2535,Quote
2536,Normal
2537,Normal
2538,Normal
2539,Normal
2540,Spam
2541,Normal
2542,Quote
2543,Spam
2544,Normal
2545,App-generated
2546,Normal
2547,Spam
2548,Spam
2549,Normal
2550,Normal
2551,Spam
2552,Spam
2553,Normal
2554,Spam
2555,Normal
2556,Quote
2557,Spam
2558,Normal
2559,Normal
2560,Spam
2561,App-generated
2562,Spam
2563,Spam
2564,Quote
2565,Quote
2566,Spam
2567,Spam
2568,Spam
2569,Quote
2570,Normal
2571,Spam
2572,Quote
2573,Quote
2574,Normal
2575,App-generated
2576,Spam
2577,Spam
2578,Spam
2579,Spam
2580,Spam
2581,Normal
2582,Spam
2583,Spam
2584,Spam
2585,Normal
2586,Normal
2587,Spam
2588,Spam
2589,Normal
2590,Quote
2591,Normal
2592,Spam
2593,Normal
2594,Normal
2595,Spam
2596,Spam
2597,Spam
2598,Normal
2599,Normal
2600,Spam
2601,Spam
2602,Normal
2603,Normal
2604,Spam
2605,Spam
2606,Spam
2607,Spam
2608,Spam
2609,Spam
2610,Normal
2611,Normal
2612,Spam
2613,Normal
2614,Spam
2615,Normal
2616,Normal
2617,Normal
2618,Spam
2619,Quote
2620,Spam
2621,Normal
2622,Spam
2623,Spam
2624,App-generated
2625,Spam
2626,Spam
2627,Normal
2628,Spam
2629,App-generated
2630,Normal
2631,Spam
2632,Spam
2633,Normal
2634,Quote
2635,App-generated
2636,Normal
2637,Spam
2638,Spam
2639,Quote
2640,Normal
2641,Normal
2642,Spam
2643,Quote
2644,Spam
2645,Spam
2646,Spam
2647,Spam
2648,Spam
2649,Spam
2650,Spam
2651,Spam
2652,Normal
2653,Spam
2654,Spam
2655,Normal
2656,Normal
2657,Spam
2658,Normal
2659,Quote
2660,Spam
2661,Normal
2662,App-generated
2663,Normal
2664,Spam
2665,Spam
2666,App-generated
2667,Spam
2668,Spam
2669,Spam
2670,Normal
2671,Spam
2672,Normal
2673,Spam
2674,Spam
2675,Normal
2676,Spam
2677,Spam
2678,Spam
2679,Spam
2680,Normal
2681,Spam
2682,Spam
2683,Spam
2684,Normal
2685,Normal
2686,Spam
2687,Normal
2688,Spam
2689,Normal
2690,Normal
2691,Quote
2692,Spam
2693,Quote
2694,Spam
2695,Normal
2696,Normal
2697,Spam
2698,Spam
2699,Normal
2700,Spam
2701,Spam
2702,Normal
2703,Spam
2704,Normal
2705,Spam
2706,Spam
2707,Normal
2708,Spam
2709,Normal
2710,Spam
2711,Normal
2712,Normal
2713,Spam
2714,Normal
2715,Spam
2716,Spam
2717,Spam
2718,Spam
2719,Spam
2720,Spam
2721,Spam
2722,App-generated
2723,Spam
2724,Spam
2725,Spam
2726,Spam
2727,Normal
2728,Normal
2729,Spam
2730,Spam
2731,Spam
2732,Spam
2733,Spam
2734,Normal
2735,Spam
2736,Spam
2737,Spam
2738,Normal
2739,Spam
2740,Spam
2741,Normal
2742,Normal
2743,Spam
2744,Spam
2745,Spam
2746,Spam
2747,Spam
2748,Spam
2749,Spam
2750,Spam
2751,App-generated
2752,Spam
2753,Spam
2754,Spam
2755,Spam
2756,Spam
2757,Spam
2758,Spam
2759,Spam
2760,Normal
2761,Spam
2762,Spam
2763,Spam
2764,Spam
2765,Normal
2766,Spam
2767,Spam
2768,Normal
2769,Normal
2770,Spam
2771,App-generated
2772,Normal
2773,Normal
2774,Spam
2775,Spam
2776,App-generated
2777,Spam
2778,Spam
2779,Normal
2780,Spam
2781,App-generated
2782,Spam
2783,Spam
2784,Spam
2785,Spam
2786,Normal
2787,App-generated
2788,Spam
2789,Spam
2790,Spam
2791,Spam
2792,Spam
2793,Spam
2794,Spam
2795,Spam
2796,Spam
2797,Spam
2798,Spam
2799,App-generated
2800,Spam
2801,Normal
2802,Spam
2803,Quote
2804,Quote
2805,Spam
2806,Spam
2807,Spam
2808,Normal
2809,Spam
2810,Spam
2811,Normal
2812,Normal
2813,Spam
2814,Normal
2815,Spam
2816,Spam
2817,App-generated
2818,Quote
2819,Normal
2820,Quote
2821,Spam
2822,Spam
2823,Spam
2824,Spam
2825,Spam
2826,Normal
2827,Normal
2828,Normal
2829,Spam
2830,Quote
2831,Spam
2832,Quote
2833,Spam
2834,Spam
2835,Spam
2836,Spam
2837,Spam
2838,Spam
2839,Spam
2840,Normal
2841,Spam
2842,Spam
2843,Spam
2844,Normal
2845,Spam
2846,Quote
2847,Spam
2848,Normal
2849,Spam
2850,Spam
2851,Spam
2852,Spam
2853,Spam
2854,Normal
2855,Normal
2856,Spam
2857,Quote
2858,Spam
2859,Spam
2860,App-generated
2861,Spam
2862,Spam
2863,Spam
2864,Normal
2865,Spam
2866,Quote
2867,Spam
2868,Spam
2869,Normal
2870,Normal
2871,Spam
2872,Normal
2873,Spam
2874,App-generated
2875,Spam
2876,Spam
2877,Spam
2878,Spam
2879,Spam
2880,Spam
2881,Spam
2882,Spam
2883,Spam
2884,Normal
2885,Normal
2886,App-generated
2887,Normal
2888,Normal
2889,Normal
2890,Normal
2891,Spam
2892,Spam
2893,Normal
2894,Spam
2895,Spam
2896,Spam
2897,Spam
2898,Normal
2899,Spam
2900,Spam
2901,Spam
2902,Normal
2903,Spam
2904,Quote
2905,Spam
2906,Spam
2907,Spam
2908,Spam
2909,Spam
2910,Spam
2911,Spam
2912,App-generated
2913,Spam
2914,Spam
2915,Spam
2916,Spam
2917,Normal
2918,Spam
2919,Spam
2920,Spam
2921,Spam
2922,Normal
2923,Spam
2924,Normal
2925,Normal
2926,Normal
2927,Spam
2928,Spam
2929,Spam
2930,Normal
2931,App-generated
2932,Normal
2933,Spam
2934,App-generated
2935,Normal
2936,Spam
2937,Spam
2938,Normal
2939,Normal
2940,Normal
2941,Spam
2942,Spam
2943,Spam
2944,Spam
2945,Spam
2946,Spam
2947,Normal
2948,Normal
2949,Spam
2950,Spam
2951,Spam
2952,Spam
2953,Spam
2954,Normal
2955,Spam
2956,Spam
2957,Normal
2958,Spam
2959,Normal
2960,Spam
2961,Spam
2962,Normal
2963,Normal
2964,Normal
2965,Quote
2966,Spam
2967,Spam
2968,Spam
2969,Quote
2970,Spam
2971,Quote
2972,Spam
2973,Spam
2974,Spam
2975,Spam
2976,Spam
2977,Normal
2978,Normal
2979,App-generated
2980,Normal
2981,Normal
2982,Normal
2983,Spam
2984,Quote
2985,Normal
2986,Quote
2987,Quote
2988,Spam
2989,Spam
2990,Spam
2991,Spam
2992,Spam
2993,Quote
2994,Normal
2995,Normal
2996,Normal
2997,Spam
2998,Spam
2999,Spam
3000,App-generated
3001,Spam
3002,Normal
3003,Normal
3004,Spam
3005,Spam
3006,Normal
3007,Spam
3008,Spam
3009,Spam
3010,App-generated
3011,Spam
3012,Spam
3013,Normal
3014,Spam
3015,Normal
3016,Spam
3017,Normal
3018,Spam
3019,Normal
3020,Spam
3021,Spam
3022,Normal
3023,Spam
3024,Spam
3025,Normal
3026,Normal
3027,Normal
3028,Spam
3029,Quote
3030,Spam
3031,App-generated
3032,Spam
3033,Normal
3034,Normal
3035,App-generated
3036,Spam
3037,Normal
3038,Quote
3039,Normal
3040,App-generated
3041,Spam
3042,Spam
3043,Spam
3044,Spam
3045,Normal
3046,Spam
3047,Normal
3048,Normal
3049,Spam
3050,Spam
3051,Normal
3052,Quote
3053,Normal
3054,Normal
3055,Normal
3056,Spam
3057,Quote
3058,Spam
3059,Spam
3060,Normal
3061,Normal
3062,Spam
3063,Normal
3064,Normal
3065,Quote
3066,Normal
3067,Normal
3068,Normal
3069,Normal
3070,Spam
3071,Normal
3072,Spam
3073,Normal
3074,Normal
3075,Quote
3076,Spam
3077,Normal
3078,Normal
3079,Spam
3080,Normal
3081,Normal
3082,Normal
3083,Normal
3084,Spam
3085,Spam
3086,Normal
3087,Normal
3088,Normal
3089,Normal
3090,Quote
3091,Spam
3092,Normal
3093,Spam
3094,Spam
3095,Spam
3096,Spam
3097,Normal
3098,Normal
3099,Spam
3100,App-generated
3101,Spam
3102,Normal
3103,Normal
3104,Spam
3105,Spam
3106,Spam
3107,Spam
3108,Spam
3109,Spam
3110,Normal
3111,Spam
3112,App-generated
3113,Spam
3114,Normal
3115,Normal
3116,Normal
3117,Normal
3118,Spam
3119,Spam
3120,Spam
3121,Spam
3122,Normal
3124,Spam
3125,Spam
3126,Normal
3127,Spam
3128,Normal
3129,Spam
3130,Quote
3131,Normal
3132,Spam
3133,Quote
3134,Spam
3135,Spam
3136,Spam
3137,Spam
3138,Quote
3139,App-generated
3140,Quote
3141,Spam
3142,Normal
3143,Normal
3144,Normal
3145,Spam
3146,Normal
3147,Spam
3148,Normal
3149,Normal
3150,Spam
3151,Spam
3152,Normal
3153,Normal
3154,Normal
3155,Normal
3156,Spam
3157,Quote
3158,Spam
3159,Normal
3160,Quote
3161,Normal
3162,Normal
3163,Normal
3164,Normal
3165,Normal
3166,Normal
3167,Spam
3168,Normal
3169,Normal
3170,Spam
3171,Spam
3172,Normal
3173,Spam
3174,Spam
3175,Normal
3176,Normal
3177,Normal
3178,App-generated
3179,Spam
3180,Normal
3181,Normal
3182,Spam
3183,App-generated
3184,Spam
3185,Quote
3186,Normal
3187,Spam
3188,Spam
3189,Spam
3190,Spam
3191,Spam
3192,Normal
3193,Spam
3194,Normal
3195,Quote
3196,Normal
3197,Quote
3198,Spam
3199,Quote
3200,Spam
3201,Spam
3202,Spam
3203,Spam
3204,App-generated
3205,Normal
3206,Spam
3207,Normal
3208,Normal
3209,Spam
3210,Normal
3211,Spam
3212,Quote
3213,Spam
3214,Normal
3215,Quote
3216,Normal
3217,Spam
3218,Quote
3219,Spam
3220,Spam
3221,Normal
3222,Normal
3223,Spam
3224,Normal
3225,Normal
3226,App-generated
3227,Spam
3228,Quote
3229,Spam
3230,Quote
3231,Spam
3232,Normal
3233,Normal
3234,Normal
3235,Spam
3236,Normal
3237,Normal
3238,Normal
3239,Normal
3240,Normal
3241,Normal
3242,Normal
3243,Normal
3244,Spam
3245,Quote
3246,Normal
3247,Spam
3248,App-generated
3249,Spam
3250,Spam
3251,Normal
3252,Spam
3253,Normal
3254,Normal
3255,Normal
3256,Normal
3257,App-generated
3258,Normal
3259,Spam
3260,Normal
3261,Spam
3262,Normal
3263,Spam
3264,Spam
3265,Spam
3266,Quote
3267,Normal
3268,Spam
3269,Spam
3270,Spam
3271,Spam
3272,Spam
3273,Normal
3274,Normal
3275,Spam
3276,Spam
3277,App-generated
3278,Spam
3279,Normal
3280,Quote
3281,Quote
3282,Spam
3283,Normal
3284,Normal
3285,Normal
3286,App-generated
3287,Normal
3288,Spam
3289,Normal
3290,Normal
3291,Normal
3292,Normal
3293,Spam
3294,Spam
3295,Spam
3296,Normal
3297,Spam
3298,Spam
3299,Quote
3300,Spam
3301,Spam
3302,Spam
3303,Spam
3304,Spam
3305,Normal
3306,Spam
3307,Normal
3308,App-generated
3309,Spam
3310,Spam
3311,Normal
3312,Spam
3313,Normal
3314,Spam
3315,Spam
3316,App-generated
3317,Spam
3318,Normal
3319,Spam
3320,Spam
3321,Normal
3322,Spam
3323,Spam
3324,Normal
3325,Quote
3326,Normal
3327,Normal
3328,Spam
3329,App-generated
3330,Normal
3331,Normal
3332,Spam
3333,Normal
3334,Spam
3335,Spam
3336,Normal
3337,Normal
3338,Spam
3339,Spam
3340,Spam
3341,Normal
3342,Normal
3343,Normal
3344,Normal
3345,Spam
3346,Spam
3347,Spam
3348,Spam
3349,Spam
3350,Normal
3351,Normal
3352,Spam
3353,Normal
3354,Spam
3355,Spam
3356,Spam
3357,Spam
3358,Spam
3359,Spam
3360,Spam
3361,Normal
3362,Normal
3363,Normal
3364,Spam
3365,Normal
3366,Normal
3367,Normal
3368,App-generated
3369,Spam
3370,Spam
3371,Spam
3372,Spam
3373,Normal
3374,Normal
3375,Normal
3376,Quote
3377,Spam
3378,Normal
3379,Quote
3380,Spam
3381,Normal
3382,Spam
3383,Spam
3384,Normal
3385,Spam
3386,Spam
3387,Spam
3388,Normal
3389,Spam
3390,Normal
3391,Normal
3392,Normal
3393,Normal
3394,Normal
3395,Spam
3396,Spam
3397,Spam
3398,Spam
3399,Normal
3400,Normal
3401,Normal
3402,Spam
3403,Normal
3404,Spam
3405,Spam
3406,Spam
3407,Spam
3408,Spam
3409,Spam
3410,Normal
3411,Spam
3412,Spam
3413,Normal
3414,Normal
3415,Normal
3416,Normal
3417,Normal
3418,Quote
3419,App-generated
3420,Quote
3421,Normal
3422,Quote
3423,Spam
3424,Spam
3425,Normal
3426,Normal
3427,Spam
3428,Normal
3429,Spam
3430,Normal
3431,Normal
3432,Spam
3433,Spam
3434,Normal
3435,Spam
3436,Quote
3437,Normal
3438,App-generated
3439,Spam
3440,App-generated
3441,Spam
3442,Normal
3443,App-generated
3444,Spam
3445,Normal
3446,Quote
3447,Normal
3448,Spam
3449,Normal
3450,App-generated
3451,Normal
3452,Spam
3453,Normal
3454,Spam
3455,Spam
3456,Normal
3457,Spam
3458,Normal
3459,Normal
3460,Spam
3461,Normal
3462,Normal
3463,Normal
3464,App-generated
3465,Quote
3466,Spam
3467,Normal
3468,Normal
3469,Normal
3470,Spam
3471,Normal
3472,Normal
3473,Spam
3474,Spam
3475,Normal
3476,Spam
3477,Spam
3478,Normal
3479,Spam
3480,Spam
3481,Spam
3482,Spam
3483,Spam
3484,Quote
3485,Normal
3486,Spam
3487,Normal
3488,Spam
3489,Spam
3490,Spam
3491,Spam
3492,Spam
3493,Normal
3494,Normal
3495,Spam
3496,Spam
3497,Spam
3498,Spam
3499,Spam
3500,Spam
3501,Spam
3502,Normal
3503,Spam
3504,App-generated
3505,Spam
3506,Spam
3507,Spam
3508,Spam
3509,Spam
3510,Normal
3511,Normal
3512,Normal
3513,Spam
3514,Spam
3515,Spam
3516,Spam
3517,Spam
3518,Spam
3519,Normal
3520,Spam
3521,App-generated
3522,Spam
3523,Normal
3524,Normal
3525,Spam
3526,Normal
3527,Normal
3528,Quote
3529,Spam
3530,Normal
3531,Spam
3532,Spam
3533,App-generated
3534,Spam
3535,Normal
3536,Spam
3537,Normal
3538,Spam
3539,Normal
3540,Normal
3541,Normal
3542,Quote
3543,Normal
3544,Normal
3545,Spam
3546,Normal
3547,Spam
3548,Normal
3549,Quote
3550,Normal
3551,Normal
3552,Normal
3553,Normal
3554,App-generated
3555,Normal
3556,Normal
3557,Normal
3558,Quote
3559,Spam
3560,Normal
3561,Spam
3562,Spam
3563,Normal
3564,Spam
3565,Spam
3566,Spam
3567,Normal
3568,Spam
3569,Quote
3570,Spam
3571,Spam
3572,Spam
3573,Quote
3574,App-generated
3575,Normal
3576,Spam
3577,Spam
3578,Spam
3579,Normal
3580,Quote
3581,Spam
3582,Spam
3583,Normal
3584,Quote
3585,App-generated
3586,App-generated
3587,Normal
3588,Spam
3589,Normal
3590,Normal
3591,Spam
3592,Normal
3593,Spam
3594,App-generated
3595,Normal
3596,Spam
3597,Spam
3598,Spam
3599,Normal
3600,Normal
3601,App-generated
3602,Normal
3603,Normal
3604,App-generated
3605,Spam
3606,Spam
3607,Normal
3608,App-generated
3609,Spam
3610,Normal
3611,Spam
3612,Spam
3613,Normal
3614,Normal
3615,Normal
3616,Normal
3617,Spam
3618,Quote
3619,Spam
3620,Normal
3621,Normal
3622,Normal
3623,Spam
3624,Normal
3625,Spam
3626,Spam
3627,Normal
3628,Normal
3629,Spam
3630,Normal
3631,Normal
3632,Spam
3633,Normal
3634,Quote
3635,Normal
3636,Normal
3637,Spam
3638,Spam
3639,Normal
3640,Normal
3641,Normal
3642,Spam
3643,Spam
3644,Normal
3645,Spam
3646,Spam
3647,Spam
3648,Spam
3649,Normal
3650,Spam
3651,Spam
3652,Spam
3653,Spam
3654,Normal
3655,Normal
3656,Spam
3657,Spam
3658,Spam
3659,Normal
3660,Spam
3661,Normal
3662,Spam
3663,Spam
3664,Quote
3665,Quote
3666,Spam
3667,Spam
3668,Normal
3669,Spam
3670,Normal
3671,Normal
3672,Normal
3673,Spam
3674,Spam
3675,Normal
3676,Normal
3677,Normal
3678,Normal
3679,Spam
3680,Normal
3681,Normal
3682,Spam
3683,Normal
3684,Spam
3685,Normal
3686,Normal
3687,Normal
3688,Normal
3689,Normal
3690,Quote
3691,Spam
3692,Spam
3693,Normal
3694,Spam
3695,Spam
3696,Spam
3697,Normal
3698,Spam
3699,Normal
3700,Spam
3701,Spam
3702,Normal
3703,Spam
3704,Normal
3705,Spam
3706,Spam
3707,Spam
3708,Spam
3709,Spam
3710,Normal
3711,Spam
3712,Spam
3713,Normal
3714,Normal
3715,Spam
3716,Normal
3717,Normal
3718,Normal
3719,Spam
3722,Spam
3723,Normal
3724,Spam
3725,Quote
3726,Spam
3727,Spam
3728,Spam
3729,Spam
3730,Normal
3731,Spam
3732,Spam
3733,Normal
3734,Quote
3735,Spam
3737,Spam
3738,Normal
3739,Normal
3740,Spam
3741,Normal
3742,Normal
3743,Spam
3744,Spam
3745,Normal
3746,Normal
3747,Quote
3748,Spam
3749,Spam
3750,Normal
3751,Normal
3752,Spam
3753,Spam
3754,Spam
3755,Spam
3756,Spam
3757,Spam
3758,Spam
3759,Spam
3760,Normal
3761,Spam
3762,Spam
3763,Spam
3764,Normal
3765,Normal
3766,Spam
3767,Normal
3768,Spam
3769,Normal
3770,Spam
3771,Spam
3772,Normal
3773,Normal
3774,Spam
3775,Normal
3776,Spam
3777,Normal
3778,Spam
3779,Spam
3780,App-generated
3781,Spam
3782,Normal
3783,Spam
3784,Spam
3785,Spam
3786,Spam
3787,Quote
3788,Quote
3789,Normal
3790,Normal
3791,Normal
3792,Normal
3793,Normal
3794,Spam
3795,Normal
3796,Normal
3797,Quote
3798,Spam
3799,Quote
3800,Quote
3801,Normal
3802,Spam
3803,Normal
3804,Normal
3805,Quote
3806,Normal
3807,Spam
3808,Spam
3809,Normal
3810,Spam
3811,Normal
3812,Spam
3813,Spam
3814,Normal
3815,Normal
3816,Normal
3818,Normal
3819,Normal
3820,Spam
3821,Spam
3822,App-generated
3823,Spam
3824,Spam
3825,Quote
3826,Normal
3827,Spam
3828,Spam
3829,Normal
3830,Spam
3831,Spam
3832,Normal
3833,Spam
3834,Unknown
3835,Spam
3836,Spam
3837,Normal
3838,Spam
3839,Spam
3840,Spam
3841,Spam
3842,Normal
3843,Spam
3844,Spam
3845,Spam
3847,Quote
3848,Normal
3849,Normal
3850,Spam
3851,Normal
3852,Spam
3853,Spam
3855,App-generated
3856,Spam
3857,Spam
3858,Spam
3859,Normal
3860,Spam
3861,Quote
3862,Normal
3863,Normal
3864,Normal
3865,Spam
3866,Normal
3867,Spam
3868,Spam
3869,Spam
3870,Normal
3871,Quote
3872,Normal
3873,Spam
3874,Spam
3875,Normal
3876,Spam
3877,Spam
3878,Normal
3879,Normal
3880,Normal
3881,Spam
3882,App-generated
3883,Spam
3884,Spam
3885,Spam
3886,Spam
3887,Spam
3888,Normal
3889,Spam
3890,Spam
3891,Spam
3892,Spam
3893,Normal
3894,Spam
3895,App-generated
3896,Spam
3897,Spam
3898,Spam
3899,Spam
3900,Spam
3901,Normal
3902,Spam
3903,App-generated
3904,Spam
3905,Spam
3906,Spam
3907,Spam
3908,Spam
3909,Quote
3910,Spam
3911,App-generated
3912,Quote
3914,Quote
3915,Spam
3916,Normal
3917,Normal
3918,Spam
3919,Spam
3920,Quote
3921,Spam
3922,Spam
3923,Spam
3924,Spam
3925,Spam
3926,Spam
3927,Spam
3928,Normal
3929,Spam
3930,Spam
3931,Spam
3932,Normal
3934,Spam
3935,Spam
3936,Spam
3937,Spam
3938,Normal
3940,Normal
3941,Quote
3942,Spam
3943,Spam
3944,Spam
3945,Spam
3946,Spam
3947,Normal
3948,Spam
3950,Spam
3951,Spam
3952,Spam
3953,Spam
3954,Normal
3955,Spam
3956,Normal
3957,Normal
3958,Spam
3959,Normal
3960,Spam
3961,Spam
3963,Normal
3964,Normal
3965,Spam
3966,Spam
3968,Spam
3972,Normal
3973,Spam
3974,Normal
3975,Normal
3976,Quote
3977,Spam
3978,Spam
3979,Spam
3981,Spam
3982,Normal
3985,Spam
3986,Normal
3987,Spam
3988,Normal
3989,Normal
3990,Quote
3991,Normal
3992,Spam
3993,Spam
3994,Spam
3995,Spam
3996,Quote
3997,Spam
3998,Spam
4000,Spam
4001,Spam
4002,Spam
4003,Spam
4004,Normal
4005,Spam
4007,Normal
4008,Normal
4009,Normal
4010,Normal
4011,Spam
4012,Spam
4013,Spam
4014,Spam
4016,Spam
4017,Spam
4018,Spam
4019,Spam
4021,Spam
4022,Quote
4023,Normal
4024,Normal
4025,App-generated
4026,Normal
4028,Normal
4029,Spam
4030,Spam
4031,Spam
4032,Spam
4033,Normal
4034,Normal
4044,Quote
4060,Spam
4095,Quote
4101,Normal
4117,App-generated
4126,Spam
4144,Spam
4149,Spam
4152,Normal
4159,Spam
4187,Spam
4191,Normal
4195,App-generated
4202,Spam
4205,Normal
4212,Spam
4221,Spam
4227,Spam
4231,Spam
4236,Spam
4246,Normal
4253,Quote
4262,Normal
4293,Spam
4325,Spam
4329,Normal
4346,Normal
4362,Quote
4364,Spam
4367,App-generated
4372,Normal
4374,Spam
4380,Normal
4383,Normal
4392,Normal
4403,Spam
4404,Spam
4406,Spam
4411,Spam
4413,Spam
4437,Spam
4445,Normal
4446,Normal
4452,Normal
4466,Normal
4484,Spam
4491,Spam
4500,Normal
4529,Normal
4536,Normal
4541,Normal
4549,Normal
4557,Normal
4562,Normal
4572,Normal
4579,Spam
4602,Normal
4627,Normal
4646,Quote
4671,Quote
4672,Spam
4691,Spam
4701,Normal
4702,Normal
4712,Normal
4716,Normal
4717,Spam
4727,Normal
4728,Normal
4734,Normal
4737,Spam
4738,Spam
4750,Spam
4752,Spam
4754,Normal
4774,Normal
4778,Spam
4806,Spam
4812,Spam
4831,Spam
4834,Spam
4843,Spam
4850,Quote
4851,Spam
4852,Normal
4853,Normal
4854,Normal
4855,Spam
4856,Normal
4857,Normal
4858,Normal
4859,Quote
4860,Spam
4861,Spam
4862,Spam
4863,Quote
4864,Normal
4865,Normal
4866,Quote
4867,Spam
4868,Spam
4869,Quote
4870,Spam
4871,Quote
4872,Spam
4873,Spam
4874,App-generated
4875,Normal
4876,Quote
4877,Spam
4878,Quote
4879,Spam
4880,Normal
4881,Spam
4882,Normal
4883,App-generated
4884,App-generated
4885,Quote
4886,Normal
4887,Spam
4888,Normal
4889,Normal
4890,Spam
4891,Normal
4892,Normal
4893,Normal
4894,Normal
4895,Normal
4896,Normal
4897,Normal
4898,Quote
4899,Normal
4900,Spam
4901,App-generated
4902,Spam
4903,Spam
4904,Normal
4905,App-generated
4906,Quote
4907,Normal
4908,Spam
4909,Spam
4910,Spam
4911,Normal
4912,Spam
4913,Normal
4914,Spam
4915,Normal
4916,Normal
4917,Normal
4918,Normal
4919,Normal
4920,Spam
4921,Spam
4922,Normal
4923,Normal
4924,Normal
4925,Normal
4926,Normal
4927,Quote
4928,Spam
4929,Normal
4930,App-generated
4931,Spam
4932,Spam
4933,Normal
4934,Spam
4935,Normal
4936,Spam
4937,Normal
4938,Normal
4939,Spam
4940,Normal
4941,Normal
4942,Spam
4943,Spam
4944,Spam
4945,Normal
4946,Spam
4947,Spam
4948,Normal
4949,Normal
4950,Normal
4951,Normal
4952,Quote
4953,Spam
4954,Spam
4955,Normal
4956,Spam
4957,Quote
4958,Normal
4959,Normal
4960,Normal
4961,Spam
4962,App-generated
4963,Normal
4964,Spam
4965,Spam
4966,Spam
4967,Spam
4968,Normal
4969,Normal
4970,Quote
4971,Spam
4972,Normal
4973,Normal
4974,Spam
4975,Spam
4976,Spam
4977,Quote
4978,Spam
4979,Quote
4980,Spam
4981,Quote
4982,Spam
4983,Spam
4984,Spam
4985,Normal
4986,Normal
4987,Normal
4988,Normal
4989,Normal
4990,Normal
4991,Normal
4992,Normal
4993,Normal
4994,Spam
4995,Normal
4996,Normal
4997,Spam
4998,Quote
4999,Quote
5000,Spam
5001,Spam
5002,Spam
5003,Quote
5004,Spam
5005,Spam
5006,Quote
5007,Spam
5008,Spam
5009,Normal
5010,Normal
5011,Normal
5012,Quote
5013,Quote
5014,Normal
5015,App-generated
5016,Normal
5017,Normal
5018,Spam
5019,Spam
5020,Spam
5021,Normal
5022,Quote
5023,Normal
5024,Quote
5025,Normal
5026,Spam
5027,Normal
5028,Spam
5029,Spam
5030,Normal
5031,Normal
5032,Spam
5033,Normal
5034,Normal
5035,Spam
5036,Quote
5037,Normal
5038,Spam
5039,Normal
5040,Normal
5041,Normal
5042,Normal
5043,Spam
5044,Normal
5045,Spam
5046,Spam
5047,Normal
5048,Normal
5049,App-generated
5050,Normal
5051,Normal
5052,Spam
5053,Quote
5054,Spam
5055,Quote
5056,Spam
5057,Spam
5058,Normal
5059,Spam
5060,Spam
5061,Spam
5062,Spam
5063,App-generated
5064,Spam
5065,Quote
5066,Spam
5067,Spam
5068,Spam
5069,Spam
5070,Normal
5071,Normal
5072,Spam
5073,Spam
5074,Spam
5075,Normal
5076,Spam
5077,Spam
5078,Spam
5079,Normal
5080,Spam
5081,Normal
5082,Spam
5083,Normal
5084,Spam
5085,Normal
5086,Spam
5087,Normal
5088,Quote
5089,Quote
5090,Spam
5091,Spam
5092,Spam
5093,Normal
5094,Spam
5095,Normal
5096,Normal
5097,Spam
5098,Normal
5099,Normal
5100,Normal
5101,Spam
5102,Quote
5103,Spam
5104,Normal
5105,Spam
5106,Quote
5107,Spam
5108,Normal
5109,Quote
5110,Spam
5111,Spam
5112,Spam
5113,Normal
5114,Spam
5115,Spam
5116,Normal
5117,Spam
5118,Normal
5119,Spam
5120,Spam
5121,Spam
5122,Spam
5123,Spam
5124,App-generated
5125,Spam
5126,Spam
5127,Spam
5128,Spam
5129,Normal
5130,Spam
5131,Spam
5132,Spam
5133,Normal
5134,Normal
5135,Spam
5136,Spam
5137,Spam
5138,Normal
5139,Spam
5140,Spam
5141,Spam
5142,Spam
5143,Quote
5144,Spam
5145,Quote
5146,Spam
5147,Spam
5148,Spam
5149,Normal
5150,Spam
5151,Spam
5152,Spam
5153,Spam
5154,Spam
5155,Normal
5156,Normal
5157,Spam
5158,Normal
5159,Quote
5160,Normal
5161,Spam
5162,Spam
5163,Spam
5164,Normal
5165,Spam
5166,Spam
5167,Spam
5168,Spam
5169,Normal
5170,Normal
5171,App-generated
5172,Normal
5173,Spam
5174,Spam
5175,Spam
5176,Quote
5177,Quote
5178,App-generated
5179,Normal
5180,Normal
5181,Spam
5182,Normal
5183,Spam
5184,Normal
5185,Normal
5186,Normal
5187,Normal
5188,App-generated
5189,Spam
5190,Spam
5191,Spam
5192,Normal
5193,Normal
5194,Normal
5195,Normal
5196,Spam
5197,Spam
5198,Normal
5199,Spam
5200,Normal
5201,Spam
5202,Spam
5203,Normal
5204,Normal
5205,Spam
5206,Spam
5207,Spam
5208,Spam
5209,Spam
5210,Spam
5211,Spam
5212,Spam
5213,Quote
5214,Normal
5215,App-generated
5216,Spam
5217,Spam
5218,Normal
5219,Spam
5220,Quote
5221,App-generated
5222,App-generated
5223,Spam
5224,Normal
5225,Normal
5226,Normal
5227,Spam
5228,Quote
5229,Spam
5230,Spam
5231,Normal
5232,Quote
5233,Normal
5234,Spam
5235,Normal
5236,Normal
5237,Spam
5238,Spam
5239,Spam
5240,Spam
5241,Spam
5242,Normal
5243,Normal
5244,Normal
5245,Quote
5246,Spam
5247,Normal
5248,Spam
5249,App-generated
5250,Spam
5251,Spam
5252,Quote
5253,Spam
5254,Spam
5255,Normal
5256,Spam
5257,Normal
5258,Quote
5259,Normal
5260,Spam
5261,Spam
5262,Spam
5263,Spam
5264,Spam
5265,Quote
5266,App-generated
5267,Spam
5268,Quote
5269,Normal
5270,Spam
5271,Spam
5272,Normal
5273,Normal
5274,Quote
5275,Spam
5276,Normal
5277,Quote
5278,Spam
5279,Spam
5280,Normal
5281,Normal
5282,Spam
5283,Spam
5284,Spam
5285,Spam
5286,App-generated
5287,Spam
5288,Spam
5289,Normal
5290,Normal
5291,Spam
5292,Normal
5293,Spam
5294,Spam
5295,Quote
5296,Spam
5297,Spam
5298,Spam
5299,Normal
5300,Normal
5301,App-generated
5302,Quote
5303,Spam
5304,Normal
5305,Spam
5306,Normal
5307,Normal
5308,Normal
5309,Spam
5310,Quote
5311,Spam
5312,Normal
5313,Normal
5314,Spam
5315,Normal
5316,Normal
5317,Spam
5318,Normal
5319,Normal
5320,Normal
5321,Spam
5322,Spam
5323,Normal
5324,App-generated
5325,Spam
5326,Normal
5327,Spam
5328,Normal
5329,Spam
5330,Spam
5331,App-generated
5332,App-generated
5333,Spam
5334,Spam
5335,Normal
5336,App-generated
5337,Spam
5338,App-generated
5339,App-generated
5340,Spam
5341,Normal
5342,Spam
5343,Normal
5344,Spam
5345,Spam
5346,Normal
5347,Spam
5348,Spam
5349,Spam
5350,Spam
5351,Normal
5352,Normal
5353,Normal
5354,Normal
5355,Normal
5356,Normal
5357,Spam
5358,Spam
5359,Quote
5360,Quote
5361,App-generated
5362,Normal
5363,Normal
5364,Normal
5365,Spam
5366,Normal
5367,App-generated
5368,Normal
5369,Spam
5370,Normal
5371,Spam
5372,Spam
5373,Spam
5374,Quote
5375,Spam
5376,Normal
5377,Normal
5378,Spam
5379,Normal
5380,Normal
5381,Normal
5382,Quote
5383,Spam
5384,Normal
5385,Spam
5386,Normal
5387,App-generated
5388,Spam
5389,Spam
5390,Spam
5391,Normal
5392,Spam
5393,App-generated
5394,Spam
5395,Normal
5396,Spam
5397,Normal
5398,Spam
5399,Normal
5400,Normal
5401,Spam
5402,Normal
5403,Normal
5404,Normal
5405,Normal
5406,App-generated
5407,Normal
5408,Spam
5409,Normal
5410,Normal
5411,Normal
5412,Normal
5413,Normal
5414,Normal
5415,App-generated
5416,Normal
5417,Spam
5418,Normal
5419,Normal
5420,Normal
5421,Normal
5422,Normal
5423,Spam
5424,Normal
5425,Quote
5426,Normal
5427,Spam
5428,Normal
5429,Spam
5430,Normal
5431,Spam
5432,Normal
5433,Normal
5434,Normal
5435,Normal
5436,Normal
5437,Spam
5438,Spam
5439,Normal
5440,Quote
5441,Normal
5442,App-generated
5443,Normal
5444,Normal
5445,Spam
5446,Normal
5447,Normal
5448,Normal
5449,Normal
5450,Normal
5451,Normal
5452,App-generated
5453,Quote
5454,Normal
5455,Normal
5456,Normal
5457,Spam
5458,Quote
5459,Normal
5460,Quote
5461,Normal
5462,Normal
5463,Normal
5464,Normal
5465,Normal
5466,Normal
5467,Normal
5468,Normal
5469,Normal
5470,Normal
5471,Normal
5472,Normal
5473,Spam
5474,Normal
5475,Normal
5476,Spam
5477,App-generated
5478,Normal
5479,Spam
5480,Spam
5481,Normal
5482,Normal
5483,Spam
5484,Normal
5485,Quote
5486,Normal
5487,Normal
5488,Normal
5489,Normal
5490,Normal
5491,Normal
5492,Spam
5493,Normal
5494,Spam
5495,Spam
5496,Spam
5497,Normal
5498,Normal
5499,Normal
5500,Spam
5501,Spam
5502,Normal
5503,Normal
5504,Normal
5505,Normal
5506,Spam
5507,Normal
5508,Spam
5509,Normal
5510,Quote
5511,Normal
5512,Spam
5513,Normal
5514,Normal
5515,Normal
5516,Normal
5517,Normal
5518,App-generated
5519,Normal
5520,Normal
5521,Normal
5522,App-generated
5523,Normal
5524,Normal
5525,Spam
5526,App-generated
5527,Spam
5528,Normal
5529,Spam
5530,Normal
5531,Normal
5532,Normal
5533,Spam
5534,App-generated
5535,Normal
5536,Normal
5537,App-generated
5538,Quote
5539,Normal
5540,Normal
5541,Normal
5542,Normal
5543,App-generated
5544,Normal
5545,Spam
5546,Normal
5547,Normal
5548,Spam
5549,Normal
5550,Normal
5551,Quote
5552,Spam
5553,Normal
5554,Spam
5555,Normal
5556,Normal
5557,Normal
5558,Normal
5559,App-generated
5560,Spam
5561,Normal
5562,Normal
5563,Normal
5564,Spam
5565,App-generated
5566,App-generated
5567,Spam
5568,Spam
5569,Normal
5570,App-generated
5571,Spam
5572,Normal
5573,Normal
5574,Spam
5575,Spam
5576,Normal
5577,Spam
5578,App-generated
5579,Normal
5580,Normal
5581,Normal
5582,Normal
5583,Spam
5584,Normal
5585,App-generated
5586,Normal
5587,Spam
5588,Quote
5589,Normal
5590,Normal
5591,Normal
5592,Normal
5593,App-generated
5594,Normal
5595,App-generated
5596,Normal
5597,Normal
5598,Normal
5599,Normal
5600,Normal
5601,Normal
5602,Normal
5603,Normal
5604,Quote
5605,Spam
5606,Quote
5607,App-generated
5608,Quote
5609,Spam
5610,Normal
5611,Normal
5612,Spam
5613,Spam
5614,Quote
5615,Normal
5616,Normal
5617,Normal
5618,Spam
5619,Normal
5620,Normal
5621,Normal
5622,Spam
5623,Normal
5624,Normal
5625,Spam
5626,Spam
5627,Normal
5628,Spam
5629,Quote
5630,Spam
5631,Normal
5632,Normal
5633,Normal
5634,App-generated
5635,Normal
5636,Normal
5637,Spam
5638,Normal
5639,Normal
5640,Normal
5641,Quote
5642,Spam
5643,Spam
5644,Normal
5645,Spam
5646,Normal
5647,Normal
5648,Spam
5649,Normal
5650,Normal
5651,App-generated
5652,Spam
5653,Spam
5654,Quote
5655,Normal
5656,Normal
5657,Normal
5658,Normal
5659,Normal
5660,Normal
5661,Quote
5662,Spam
5663,App-generated
5664,App-generated
5665,Spam
5666,Spam
5667,Normal
5668,Normal
5669,Normal
5670,Normal
5671,Normal
5672,Spam
5673,Quote
5674,Normal
5675,Normal
5676,Normal
5677,Normal
5678,Quote
5679,Quote
5680,Normal
5681,Spam
5682,Quote
5683,Normal
5684,Spam
5685,Normal
5686,Normal
5687,App-generated
5688,Spam
5689,Normal
5690,Normal
5691,Normal
5692,Normal
5693,App-generated
5694,Spam
5695,Normal
5696,Spam
5697,Normal
5698,Spam
5699,App-generated
5700,Normal
5701,Normal
5702,Normal
5703,Normal
5704,Spam
5705,Quote
5706,Normal
5707,Normal
5708,Normal
5709,Spam
5710,Normal
5711,Spam
5712,Normal
5713,Normal
5714,Normal
5715,Quote
5716,Normal
5717,Spam
5718,Normal
5719,Normal
5720,Quote
5721,Normal
5722,Normal
5723,Normal
5724,Normal
5725,Normal
5726,Normal
5727,App-generated
5728,Normal
5729,Normal
5730,Spam
5731,Spam
5732,Normal
5733,Normal
5734,Normal
5735,Spam
5736,Normal
5737,Normal
5738,Normal
5739,Spam
5740,Quote
5741,Spam
5742,Spam
5743,Spam
5744,Spam
5745,Spam
5746,Spam
5747,App-generated
5748,Normal
5749,Normal
5750,Normal
5751,Normal
5752,App-generated
5753,Normal
5754,Spam
5755,Normal
5756,Normal
5757,Normal
5758,Normal
5759,Normal
5760,Spam
5761,Quote
5762,Spam
5763,Spam
5764,Quote
5765,Spam
5766,Normal
5767,Normal
5768,Normal
5769,Quote
5770,Normal
5771,Normal
5772,Quote
5773,Normal
5774,Normal
5775,Normal
5776,Spam
5777,Spam
5778,Normal
5779,Normal
5780,Normal
5781,Spam
5782,App-generated
5783,Normal
5784,Spam
5785,Normal
5786,Spam
5787,Normal
5788,Normal
5789,Spam
5790,Normal
5791,Normal
5792,Normal